Proyecto/Lab_07/lab07.vcd
$date
	Tue Jul 21 20:12:03 2020
$end
$version
	Icarus Verilog
$end
$timescale
	1s
$end
$scope module flopenr $end
$var wire 1 ! clk $end
$var wire 8 " d [7:0] $end
$var wire 1 # en $end
$var wire 1 $ reset $end
$var reg 8 % q [7:0] $end
$upscope $end
$scope module testbench $end
$var wire 32 & writedata [31:0] $end
$var wire 1 ' memwrite $end
$var wire 32 ( dataadr [31:0] $end
$var reg 1 ) clk $end
$var reg 1 * reset $end
$scope module dut $end
$var wire 1 ) clk $end
$var wire 1 * reset $end
$var wire 32 + writedata [31:0] $end
$var wire 32 , readdata [31:0] $end
$var wire 32 - pc [31:0] $end
$var wire 1 ' memwrite $end
$var wire 32 . instr [31:0] $end
$var wire 32 / dataadr [31:0] $end
$scope module dmem $end
$var wire 1 ) clk $end
$var wire 32 0 rd [31:0] $end
$var wire 1 ' we $end
$var wire 32 1 wd [31:0] $end
$var wire 32 2 a [31:0] $end
$upscope $end
$scope module imem $end
$var wire 6 3 a [5:0] $end
$var wire 32 4 rd [31:0] $end
$upscope $end
$scope module mips $end
$var wire 1 ) clk $end
$var wire 32 5 instr [31:0] $end
$var wire 32 6 readdata [31:0] $end
$var wire 1 * reset $end
$var wire 1 7 zero $end
$var wire 32 8 writedata [31:0] $end
$var wire 1 9 regwrite $end
$var wire 1 : regdst $end
$var wire 1 ; pcsrc $end
$var wire 32 < pc [31:0] $end
$var wire 1 ' memwrite $end
$var wire 1 = memtoreg $end
$var wire 1 > jump $end
$var wire 1 ? bne $end
$var wire 1 @ alusrc $end
$var wire 32 A aluout [31:0] $end
$var wire 3 B alucontrol [2:0] $end
$scope module c $end
$var wire 6 C funct [5:0] $end
$var wire 6 D op [5:0] $end
$var wire 1 ; pcsrc $end
$var wire 1 7 zero $end
$var wire 1 9 regwrite $end
$var wire 1 : regdst $end
$var wire 1 ' memwrite $end
$var wire 1 = memtoreg $end
$var wire 1 > jump $end
$var wire 1 E branch $end
$var wire 1 ? bne $end
$var wire 1 @ alusrc $end
$var wire 2 F aluop [1:0] $end
$var wire 3 G alucontrol [2:0] $end
$scope module ad $end
$var wire 6 H funct [5:0] $end
$var wire 2 I aluop [1:0] $end
$var reg 3 J alucontrol [2:0] $end
$upscope $end
$scope module md $end
$var wire 6 K op [5:0] $end
$var wire 1 9 regwrite $end
$var wire 1 : regdst $end
$var wire 1 ' memwrite $end
$var wire 1 = memtoreg $end
$var wire 1 > jump $end
$var wire 1 E branch $end
$var wire 1 ? bne $end
$var wire 1 @ alusrc $end
$var wire 2 L aluop [1:0] $end
$var reg 10 M controls [9:0] $end
$upscope $end
$upscope $end
$scope module dp $end
$var wire 3 N alucontrol [2:0] $end
$var wire 1 @ alusrc $end
$var wire 1 ? bne $end
$var wire 1 ) clk $end
$var wire 32 O instr [31:0] $end
$var wire 1 > jump $end
$var wire 1 = memtoreg $end
$var wire 1 ; pcsrc $end
$var wire 32 P readdata [31:0] $end
$var wire 1 : regdst $end
$var wire 1 9 regwrite $end
$var wire 1 * reset $end
$var wire 1 7 zero $end
$var wire 5 Q writereg [4:0] $end
$var wire 32 R writedata [31:0] $end
$var wire 32 S srcb [31:0] $end
$var wire 32 T srca [31:0] $end
$var wire 32 U signimmsh [31:0] $end
$var wire 32 V signimm [31:0] $end
$var wire 32 W result [31:0] $end
$var wire 32 X pcplus4 [31:0] $end
$var wire 32 Y pcnextbr [31:0] $end
$var wire 32 Z pcnext [31:0] $end
$var wire 32 [ pcbranch [31:0] $end
$var wire 32 \ pc [31:0] $end
$var wire 32 ] aluout [31:0] $end
$scope module alu $end
$var wire 3 ^ op [2:0] $end
$var wire 32 _ result [31:0] $end
$var wire 32 ` logicout [31:0] $end
$var wire 1 7 cero $end
$var wire 32 a b [31:0] $end
$var wire 32 b arithout [31:0] $end
$var wire 32 c a [31:0] $end
$scope module a_block $end
$var wire 3 d op [2:0] $end
$var wire 32 e b [31:0] $end
$var wire 32 f arithout [31:0] $end
$var wire 32 g addout [31:0] $end
$var wire 32 h a [31:0] $end
$scope module first_adder_substractor $end
$var wire 1 i s $end
$var wire 32 j y [31:0] $end
$var wire 32 k con [31:0] $end
$var wire 32 l b [31:0] $end
$var wire 32 m a [31:0] $end
$scope module first_adder $end
$var wire 1 i s $end
$var wire 32 n b [31:0] $end
$var wire 32 o a [31:0] $end
$var reg 32 p y [31:0] $end
$upscope $end
$scope module first_mux $end
$var wire 32 q b [31:0] $end
$var wire 1 i s $end
$var wire 32 r y [31:0] $end
$var wire 32 s a [31:0] $end
$upscope $end
$upscope $end
$scope module first_stl $end
$var wire 32 t a [31:0] $end
$var wire 1 u s $end
$var wire 32 v y [31:0] $end
$var reg 32 w extend [31:0] $end
$scope module first_mux $end
$var wire 32 x a [31:0] $end
$var wire 32 y b [31:0] $end
$var wire 1 u s $end
$var wire 32 z y [31:0] $end
$upscope $end
$upscope $end
$upscope $end
$scope module answer $end
$var wire 32 { b [31:0] $end
$var wire 1 | s $end
$var wire 32 } y [31:0] $end
$var wire 32 ~ a [31:0] $end
$upscope $end
$scope module l_block $end
$var wire 3 !" op [2:0] $end
$var wire 32 "" b [31:0] $end
$var wire 32 #" a [31:0] $end
$var reg 32 $" logicout [31:0] $end
$upscope $end
$scope module z_block $end
$var wire 32 %" a [31:0] $end
$var reg 1 7 y $end
$upscope $end
$upscope $end
$scope module immsh $end
$var wire 32 &" y [31:0] $end
$var wire 32 '" a [31:0] $end
$upscope $end
$scope module pcadd1 $end
$var wire 32 (" b [31:0] $end
$var wire 32 )" y [31:0] $end
$var wire 32 *" a [31:0] $end
$upscope $end
$scope module pcadd2 $end
$var wire 32 +" a [31:0] $end
$var wire 32 ," b [31:0] $end
$var wire 32 -" y [31:0] $end
$upscope $end
$scope module pcbrmux $end
$var wire 32 ." d0 [31:0] $end
$var wire 32 /" d1 [31:0] $end
$var wire 1 ; s $end
$var wire 32 0" y [31:0] $end
$upscope $end
$scope module pcmux $end
$var wire 32 1" d0 [31:0] $end
$var wire 32 2" d1 [31:0] $end
$var wire 1 > s $end
$var wire 32 3" y [31:0] $end
$upscope $end
$scope module pcreg $end
$var wire 1 ) clk $end
$var wire 32 4" d [31:0] $end
$var wire 1 * reset $end
$var reg 32 5" q [31:0] $end
$upscope $end
$scope module resmux $end
$var wire 32 6" d0 [31:0] $end
$var wire 32 7" d1 [31:0] $end
$var wire 1 = s $end
$var wire 32 8" y [31:0] $end
$upscope $end
$scope module rf $end
$var wire 1 ) clk $end
$var wire 5 9" ra1 [4:0] $end
$var wire 5 :" ra2 [4:0] $end
$var wire 32 ;" wd3 [31:0] $end
$var wire 1 9 we3 $end
$var wire 5 <" wa3 [4:0] $end
$var wire 32 =" rd2 [31:0] $end
$var wire 32 >" rd1 [31:0] $end
$upscope $end
$scope module se $end
$var wire 16 ?" a [15:0] $end
$var wire 3 @" alucontrol [2:0] $end
$var reg 32 A" y [31:0] $end
$upscope $end
$scope module srcbmux $end
$var wire 32 B" d0 [31:0] $end
$var wire 32 C" d1 [31:0] $end
$var wire 1 @ s $end
$var wire 32 D" y [31:0] $end
$upscope $end
$scope module wrmux $end
$var wire 5 E" d0 [4:0] $end
$var wire 5 F" d1 [4:0] $end
$var wire 1 : s $end
$var wire 5 G" y [4:0] $end
$upscope $end
$upscope $end
$upscope $end
$upscope $end
$upscope $end
$enddefinitions $end
#0
$dumpvars
b10 G"
b0 F"
b10 E"
b101 D"
b101 C"
bx B"
b101 A"
b10 @"
b101 ?"
b0 >"
bx ="
b10 <"
b101 ;"
b10 :"
b0 9"
b101 8"
bx 7"
b101 6"
b0 5"
b100 4"
b100 3"
b10000000000000010100 2"
b100 1"
b100 0"
b11000 /"
b100 ."
b11000 -"
b10100 ,"
b100 +"
b0 *"
b100 )"
b100 ("
b101 '"
b10100 &"
b101 %"
bx $"
b0 #"
b101 ""
b10 !"
bx ~
b101 }
1|
b101 {
b101 z
b0 y
b101 x
b0 w
b101 v
0u
b101 t
b101 s
b101 r
b11111111111111111111111111111010 q
b101 p
b0 o
b101 n
b0 m
b101 l
b101 k
b101 j
0i
b0 h
b101 g
b101 f
b101 e
b10 d
b0 c
b101 b
b101 a
bx `
b101 _
b10 ^
b101 ]
b0 \
b11000 [
b100 Z
b100 Y
b100 X
b101 W
b101 V
b10100 U
b0 T
b101 S
bx R
b10 Q
bx P
b100000000000100000000000000101 O
b10 N
b1010000000 M
b0 L
b1000 K
b10 J
b0 I
b101 H
b10 G
b0 F
0E
b1000 D
b101 C
b10 B
b101 A
1@
0?
0>
0=
b0 <
0;
0:
19
bx 8
07
bx 6
b100000000000100000000000000101 5
b100000000000100000000000000101 4
b0 3
b101 2
bx 1
bx 0
b101 /
b100000000000100000000000000101 .
b0 -
bx ,
bx +
1*
1)
b101 (
0'
bx &
bx %
z$
z#
bz "
z!
$end
#5
0)
#10
b101 &
b101 +
b101 1
b101 8
b101 R
b101 ="
b101 B"
1)
#15
0)
#20
1)
#22
0*
#25
0)
#30
b1100 W
b1100 8"
b1100 ;"
b1100 (
b1100 /
b1100 2
b1100 A
b1100 ]
b1100 _
b1100 }
b1100 %"
b1100 6"
b1100 b
b1100 f
b1100 v
b1100 z
b1100 {
b1100 g
b1100 j
b1100 p
b1100 t
b1100 x
b1100 k
b1100 n
b1100 r
b11111111111111111111111111110011 q
b1100 S
b1100 a
b1100 e
b1100 l
b1100 s
b1100 ""
b1100 D"
b110000 U
b110000 &"
b110000 ,"
bx &
bx +
bx 1
bx 8
bx R
bx ="
bx B"
b11 Q
b11 <"
b11 G"
b1100 V
b1100 '"
b1100 A"
b1100 C"
b1000 Z
b1000 3"
b1000 4"
b1100 C
b1100 H
b11000000000000110000 2"
b11 :"
b11 E"
b1100 ?"
b1000 Y
b1000 0"
b1000 1"
b100000000000110000000000001100 .
b100000000000110000000000001100 4
b100000000000110000000000001100 5
b100000000000110000000000001100 O
b1 3
b111000 [
b111000 -"
b111000 /"
b1000 X
b1000 )"
b1000 +"
b1000 ."
b100 -
b100 <
b100 \
b100 *"
b100 5"
1)
#35
0)
#40
b11 W
b11 8"
b11 ;"
b11 (
b11 /
b11 2
b11 A
b11 ]
b11 _
b11 }
b11 %"
b11 6"
b11 b
b11 f
b11 v
b11 z
b11 {
b11 g
b11 j
b11 p
b11 t
b11 x
b11111111111111111111111111110111 k
b11111111111111111111111111110111 n
b11111111111111111111111111110111 r
b1000 q
b11111111111111111111111111110111 S
b11111111111111111111111111110111 a
b11111111111111111111111111110111 e
b11111111111111111111111111110111 l
b11111111111111111111111111110111 s
b11111111111111111111111111110111 ""
b11111111111111111111111111110111 D"
b11111111111111111111111111011100 U
b11111111111111111111111111011100 &"
b11111111111111111111111111011100 ,"
b1100 T
b1100 c
b1100 h
b1100 m
b1100 o
b1100 #"
b1100 >"
b111 Q
b111 <"
b111 G"
b11111111111111111111111111110111 V
b11111111111111111111111111110111 '"
b11111111111111111111111111110111 A"
b11111111111111111111111111110111 C"
b1100 Z
b1100 3"
b1100 4"
b110111 C
b110111 H
b1100111111111111111011100 2"
b11 9"
b111 :"
b111 E"
b11111 F"
b1111111111110111 ?"
bx &
bx +
bx 1
bx 8
bx R
bx ="
bx B"
b1100 Y
b1100 0"
b1100 1"
b100000011001111111111111110111 .
b100000011001111111111111110111 4
b100000011001111111111111110111 5
b100000011001111111111111110111 O
b10 3
b11111111111111111111111111101000 [
b11111111111111111111111111101000 -"
b11111111111111111111111111101000 /"
b1100 X
b1100 )"
b1100 +"
b1100 ."
b1000 -
b1000 <
b1000 \
b1000 *"
b1000 5"
1)
#45
0)
#50
0|
1u
b111 `
b111 ~
b111 $"
b1 B
b1 G
b1 J
b1 N
b1 ^
b1 d
b1 !"
b1 @"
b111 W
b111 8"
b111 ;"
b111 (
b111 /
b111 2
b111 A
b111 ]
b111 _
b111 }
b111 %"
b111 6"
b0 b
b0 f
b0 v
b0 z
b0 {
1:
0@
b10 F
b10 I
b10 L
b1000 g
b1000 j
b1000 p
b1000 t
b1000 x
b1100000100 M
b101 k
b101 n
b101 r
b11111111111111111111111111111010 q
b101 S
b101 a
b101 e
b101 l
b101 s
b101 ""
b101 D"
b1000000010010100 U
b1000000010010100 &"
b1000000010010100 ,"
b11 T
b11 c
b11 h
b11 m
b11 o
b11 #"
b11 >"
b100 Q
b100 <"
b100 G"
b10000000100101 V
b10000000100101 '"
b10000000100101 A"
b10000000100101 C"
b10000 Z
b10000 3"
b10000 4"
b0 D
b0 K
b100101 C
b100101 H
b11100010001000000010010100 2"
b111 9"
b10 :"
b10 E"
b100 F"
b10000000100101 ?"
b101 &
b101 +
b101 1
b101 8
b101 R
b101 ="
b101 B"
b10000 Y
b10000 0"
b10000 1"
b111000100010000000100101 .
b111000100010000000100101 4
b111000100010000000100101 5
b111000100010000000100101 O
b11 3
b1000000010100100 [
b1000000010100100 -"
b1000000010100100 /"
b10000 X
b10000 )"
b10000 +"
b10000 ."
b1100 -
b1100 <
b1100 \
b1100 *"
b1100 5"
1)
#55
0)
#60
b10011 b
b10011 f
b10011 v
b10011 z
b10011 {
0u
b10011 g
b10011 j
b10011 p
b10011 t
b10011 x
b0 B
b0 G
b0 J
b0 N
b0 ^
b0 d
b0 !"
b0 @"
b100 W
b100 8"
b100 ;"
b100 (
b100 /
b100 2
b100 A
b100 ]
b100 _
b100 }
b100 %"
b100 6"
b111 k
b111 n
b111 r
b11111111111111111111111111111000 q
b100 `
b100 ~
b100 $"
b111 S
b111 a
b111 e
b111 l
b111 s
b111 ""
b111 D"
b1010000010010000 U
b1010000010010000 &"
b1010000010010000 ,"
b1100 T
b1100 c
b1100 h
b1100 m
b1100 o
b1100 #"
b1100 >"
b111 &
b111 +
b111 1
b111 8
b111 R
b111 ="
b111 B"
b101 Q
b101 <"
b101 G"
b10100000100100 V
b10100000100100 '"
b10100000100100 A"
b10100000100100 C"
b10100 Z
b10100 3"
b10100 4"
b100100 C
b100100 H
b1100100001010000010010000 2"
b11 9"
b100 :"
b100 E"
b101 F"
b10100000100100 ?"
b10100 Y
b10100 0"
b10100 1"
b11001000010100000100100 .
b11001000010100000100100 4
b11001000010100000100100 5
b11001000010100000100100 O
b100 3
b1010000010100100 [
b1010000010100100 -"
b1010000010100100 /"
b10100 X
b10100 )"
b10100 +"
b10100 ."
b10000 -
b10000 <
b10000 \
b10000 *"
b10000 5"
1)
#65
0)
#70
b1011 W
b1011 8"
b1011 ;"
b1011 (
b1011 /
b1011 2
b1011 A
b1011 ]
b1011 _
b1011 }
b1011 %"
b1011 6"
b1011 b
b1011 f
b1011 v
b1011 z
b1011 {
1|
bx `
bx ~
bx $"
b1011 g
b1011 j
b1011 p
b1011 t
b1011 x
b10 B
b10 G
b10 J
b10 N
b10 ^
b10 d
b10 !"
b10 @"
b1010000010000000 U
b1010000010000000 &"
b1010000010000000 ,"
b100 T
b100 c
b100 h
b100 m
b100 o
b100 #"
b100 >"
b10100000100000 V
b10100000100000 '"
b10100000100000 A"
b10100000100000 C"
b11000 Z
b11000 3"
b11000 4"
b100000 C
b100000 H
b10100100001010000010000000 2"
b101 9"
b10100000100000 ?"
b11000 Y
b11000 0"
b11000 1"
b101001000010100000100000 .
b101001000010100000100000 4
b101001000010100000100000 5
b101001000010100000100000 O
b101 3
b1010000010011000 [
b1010000010011000 -"
b1010000010011000 /"
b11000 X
b11000 )"
b11000 +"
b11000 ."
b10100 -
b10100 <
b10100 \
b10100 *"
b10100 5"
1)
#75
0)
#80
b0 w
b0 y
b1000 W
b1000 8"
b1000 ;"
b1000 (
b1000 /
b1000 2
b1000 A
b1000 ]
b1000 _
b1000 }
b1000 %"
b1000 6"
09
0:
1E
b1 F
b1 I
b1 L
1|
1i
0u
b1000 b
b1000 f
b1000 v
b1000 z
b1000 {
b1000010 M
b110 B
b110 G
b110 J
b110 N
b110 ^
b110 d
b110 !"
b110 @"
b1000 g
b1000 j
b1000 p
b1000 t
b1000 x
b11111111111111111111111111111100 k
b11111111111111111111111111111100 n
b11111111111111111111111111111100 r
b11111111111111111111111111111100 q
b11 S
b11 a
b11 e
b11 l
b11 s
b11 ""
b11 D"
b101000 U
b101000 &"
b101000 ,"
b11 &
b11 +
b11 1
b11 8
b11 R
b11 ="
b11 B"
b111 Q
b111 <"
b111 G"
b1010 V
b1010 '"
b1010 A"
b1010 C"
b11100 Z
b11100 3"
b11100 4"
b100 D
b100 K
b1010 C
b1010 H
b10100111000000000000101000 2"
b111 :"
b111 E"
b0 F"
b1010 ?"
b1011 T
b1011 c
b1011 h
b1011 m
b1011 o
b1011 #"
b1011 >"
b11100 Y
b11100 0"
b11100 1"
b10000101001110000000000001010 .
b10000101001110000000000001010 4
b10000101001110000000000001010 5
b10000101001110000000000001010 O
b110 3
b1000100 [
b1000100 -"
b1000100 /"
b11100 X
b11100 )"
b11100 +"
b11100 ."
b11000 -
b11000 <
b11000 \
b11000 *"
b11000 5"
1)
#85
0)
#90
17
1u
b111 B
b111 G
b111 J
b111 N
b111 ^
b111 d
b111 !"
b111 @"
b0 W
b0 8"
b0 ;"
b0 (
b0 /
b0 2
b0 A
b0 ]
b0 _
b0 }
b0 %"
b0 6"
b0 b
b0 f
b0 v
b0 z
b0 {
19
1:
0E
b10 F
b10 I
b10 L
b101 g
b101 j
b101 p
b101 t
b101 x
b1100000100 M
b11111111111111111111111111111000 k
b11111111111111111111111111111000 n
b11111111111111111111111111111000 r
b11111111111111111111111111111000 q
b111 S
b111 a
b111 e
b111 l
b111 s
b111 ""
b111 D"
b1000000010101000 U
b1000000010101000 &"
b1000000010101000 ,"
b1100 T
b1100 c
b1100 h
b1100 m
b1100 o
b1100 #"
b1100 >"
b111 &
b111 +
b111 1
b111 8
b111 R
b111 ="
b111 B"
b100 Q
b100 <"
b100 G"
b10000000101010 V
b10000000101010 '"
b10000000101010 A"
b10000000101010 C"
b100000 Z
b100000 3"
b100000 4"
b0 D
b0 K
b101010 C
b101010 H
b1100100001000000010101000 2"
b11 9"
b100 :"
b100 E"
b100 F"
b10000000101010 ?"
b100000 Y
b100000 0"
b100000 1"
b11001000010000000101010 .
b11001000010000000101010 4
b11001000010000000101010 5
b11001000010000000101010 O
b111 3
b1000000011001000 [
b1000000011001000 -"
b1000000011001000 /"
b100000 X
b100000 )"
b100000 +"
b100000 ."
b11100 -
b11100 <
b11100 \
b11100 *"
b11100 5"
1)
#95
0)
#100
b0 w
b0 y
b0 b
b0 f
b0 v
b0 z
b0 {
1;
b0 W
b0 8"
b0 ;"
17
b0 (
b0 /
b0 2
b0 A
b0 ]
b0 _
b0 }
b0 %"
b0 6"
09
0:
1E
b1 F
b1 I
b1 L
1|
1i
0u
b0 g
b0 j
b0 p
b0 t
b0 x
b1000010 M
b110 B
b110 G
b110 J
b110 N
b110 ^
b110 d
b110 !"
b110 @"
b11111111111111111111111111111111 k
b11111111111111111111111111111111 n
b11111111111111111111111111111111 r
b100 U
b100 &"
b100 ,"
b11111111111111111111111111111111 q
b0 T
b0 c
b0 h
b0 m
b0 o
b0 #"
b0 >"
b0 Q
b0 <"
b0 G"
b1 V
b1 '"
b1 A"
b1 C"
b0 S
b0 a
b0 e
b0 l
b0 s
b0 ""
b0 D"
b101000 Z
b101000 3"
b101000 4"
b100 D
b100 K
b1 C
b1 H
b10000000000000000000000100 2"
b100 9"
b0 :"
b0 E"
b0 F"
b1 ?"
b0 &
b0 +
b0 1
b0 8
b0 R
b0 ="
b0 B"
b101000 Y
b101000 0"
b101000 1"
b10000100000000000000000000001 .
b10000100000000000000000000001 4
b10000100000000000000000000001 5
b10000100000000000000000000001 O
b1000 3
b101000 [
b101000 -"
b101000 /"
b100100 X
b100100 )"
b100100 +"
b100100 ."
b100000 -
b100000 <
b100000 \
b100000 *"
b100000 5"
1)
#105
0)
#110
1u
b111 B
b111 G
b111 J
b111 N
b111 ^
b111 d
b111 !"
b111 @"
b1 W
b1 8"
b1 ;"
07
0;
b1 (
b1 /
b1 2
b1 A
b1 ]
b1 _
b1 }
b1 %"
b1 6"
b1 w
b1 y
b1 b
b1 f
b1 v
b1 z
b1 {
19
1:
0E
b10 F
b10 I
b10 L
b11111111111111111111111111111110 g
b11111111111111111111111111111110 j
b11111111111111111111111111111110 p
b11111111111111111111111111111110 t
b11111111111111111111111111111110 x
b1100000100 M
b11111111111111111111111111111010 k
b11111111111111111111111111111010 n
b11111111111111111111111111111010 r
b11111111111111111111111111111010 q
b101 S
b101 a
b101 e
b101 l
b101 s
b101 ""
b101 D"
b1000000010101000 U
b1000000010101000 &"
b1000000010101000 ,"
b11 T
b11 c
b11 h
b11 m
b11 o
b11 #"
b11 >"
b101 &
b101 +
b101 1
b101 8
b101 R
b101 ="
b101 B"
b100 Q
b100 <"
b100 G"
b10000000101010 V
b10000000101010 '"
b10000000101010 A"
b10000000101010 C"
b101100 Z
b101100 3"
b101100 4"
b0 D
b0 K
b101010 C
b101010 H
b11100010001000000010101000 2"
b111 9"
b10 :"
b10 E"
b100 F"
b10000000101010 ?"
b101100 Y
b101100 0"
b101100 1"
b111000100010000000101010 .
b111000100010000000101010 4
b111000100010000000101010 5
b111000100010000000101010 O
b1010 3
b1000000011010100 [
b1000000011010100 -"
b1000000011010100 /"
b101100 X
b101100 )"
b101100 +"
b101100 ."
b101000 -
b101000 <
b101000 \
b101000 *"
b101000 5"
1)
#115
0)
#120
b0 w
b0 y
b1100 W
b1100 8"
b1100 ;"
b1100 (
b1100 /
b1100 2
b1100 A
b1100 ]
b1100 _
b1100 }
b1100 %"
b1100 6"
b1100 b
b1100 f
b1100 v
b1100 z
b1100 {
0i
0u
b1100 g
b1100 j
b1100 p
b1100 t
b1100 x
b10 B
b10 G
b10 J
b10 N
b10 ^
b10 d
b10 !"
b10 @"
b1011 k
b1011 n
b1011 r
b11111111111111111111111111110100 q
b1011 S
b1011 a
b1011 e
b1011 l
b1011 s
b1011 ""
b1011 D"
b1110000010000000 U
b1110000010000000 &"
b1110000010000000 ,"
b1 T
b1 c
b1 h
b1 m
b1 o
b1 #"
b1 >"
b1011 &
b1011 +
b1011 1
b1011 8
b1011 R
b1011 ="
b1011 B"
b111 Q
b111 <"
b111 G"
b11100000100000 V
b11100000100000 '"
b11100000100000 A"
b11100000100000 C"
b110000 Z
b110000 3"
b110000 4"
b100000 C
b100000 H
b10000101001110000010000000 2"
b100 9"
b101 :"
b101 E"
b111 F"
b11100000100000 ?"
b110000 Y
b110000 0"
b110000 1"
b100001010011100000100000 .
b100001010011100000100000 4
b100001010011100000100000 5
b100001010011100000100000 O
b1011 3
b1110000010110000 [
b1110000010110000 -"
b1110000010110000 /"
b110000 X
b110000 )"
b110000 +"
b110000 ."
b101100 -
b101100 <
b101100 \
b101100 *"
b101100 5"
1)
#125
0)
#130
b111 W
b111 8"
b111 ;"
b111 (
b111 /
b111 2
b111 A
b111 ]
b111 _
b111 }
b111 %"
b111 6"
b111 b
b111 f
b111 v
b111 z
b111 {
1i
b111 g
b111 j
b111 p
b111 t
b111 x
b110 B
b110 G
b110 J
b110 N
b110 ^
b110 d
b110 !"
b110 @"
b11111111111111111111111111111010 k
b11111111111111111111111111111010 n
b11111111111111111111111111111010 r
b11111111111111111111111111111010 q
b101 S
b101 a
b101 e
b101 l
b101 s
b101 ""
b101 D"
b1110000010001000 U
b1110000010001000 &"
b1110000010001000 ,"
b1100 T
b1100 c
b1100 h
b1100 m
b1100 o
b1100 #"
b1100 >"
b101 &
b101 +
b101 1
b101 8
b101 R
b101 ="
b101 B"
b11100000100010 V
b11100000100010 '"
b11100000100010 A"
b11100000100010 C"
b110100 Z
b110100 3"
b110100 4"
b100010 C
b100010 H
b11100010001110000010001000 2"
b111 9"
b10 :"
b10 E"
b11100000100010 ?"
b110100 Y
b110100 0"
b110100 1"
b111000100011100000100010 .
b111000100011100000100010 4
b111000100011100000100010 5
b111000100011100000100010 O
b1100 3
b1110000010111100 [
b1110000010111100 -"
b1110000010111100 /"
b110100 X
b110100 )"
b110100 +"
b110100 ."
b110000 -
b110000 <
b110000 \
b110000 *"
b110000 5"
1)
#135
0)
#140
b0 w
b0 y
b1010000 W
b1010000 8"
b1010000 ;"
b1010000 (
b1010000 /
b1010000 2
b1010000 A
b1010000 ]
b1010000 _
b1010000 }
b1010000 %"
b1010000 6"
09
0:
1@
1'
b0 F
b0 I
b0 L
1|
0i
0u
b1010000 b
b1010000 f
b1010000 v
b1010000 z
b1010000 {
b10100000 M
b10 B
b10 G
b10 J
b10 N
b10 ^
b10 d
b10 !"
b10 @"
b1010000 g
b1010000 j
b1010000 p
b1010000 t
b1010000 x
b1000100 k
b1000100 n
b1000100 r
b11111111111111111111111110111011 q
b1000100 S
b1000100 a
b1000100 e
b1000100 l
b1000100 s
b1000100 ""
b1000100 D"
b100010000 U
b100010000 &"
b100010000 ,"
b111 &
b111 +
b111 1
b111 8
b111 R
b111 ="
b111 B"
b111 Q
b111 <"
b111 G"
b1000100 V
b1000100 '"
b1000100 A"
b1000100 C"
b111000 Z
b111000 3"
b111000 4"
b101011 D
b101011 K
b100 C
b100 H
b1100111000000000100010000 2"
b11 9"
b111 :"
b111 E"
b0 F"
b1000100 ?"
b1100 T
b1100 c
b1100 h
b1100 m
b1100 o
b1100 #"
b1100 >"
b111000 Y
b111000 0"
b111000 1"
b10101100011001110000000001000100 .
b10101100011001110000000001000100 4
b10101100011001110000000001000100 5
b10101100011001110000000001000100 O
b1101 3
b101001000 [
b101001000 -"
b101001000 /"
b111000 X
b111000 )"
b111000 +"
b111000 ."
b110100 -
b110100 <
b110100 \
b110100 *"
b110100 5"
1)
#145
0)
#150
b111 W
b111 8"
b111 ;"
19
0'
1=
b1010000 g
b1010000 j
b1010000 p
b1010000 t
b1010000 x
b1010010000 M
b1010000 k
b1010000 n
b1010000 r
b11111111111111111111111110101111 q
b1010000 S
b1010000 a
b1010000 e
b1010000 l
b1010000 s
b1010000 ""
b1010000 D"
b101000000 U
b101000000 &"
b101000000 ,"
b0 T
b0 c
b0 h
b0 m
b0 o
b0 #"
b0 >"
b101 &
b101 +
b101 1
b101 8
b101 R
b101 ="
b101 B"
b10 Q
b10 <"
b10 G"
b1010000 V
b1010000 '"
b1010000 A"
b1010000 C"
b111100 Z
b111100 3"
b111100 4"
b100011 D
b100011 K
b10000 C
b10000 H
b10000000000101000000 2"
b0 9"
b10 :"
b10 E"
b1010000 ?"
b111100 Y
b111100 0"
b111100 1"
b10001100000000100000000001010000 .
b10001100000000100000000001010000 4
b10001100000000100000000001010000 5
b10001100000000100000000001010000 O
b1110 3
b111 ,
b111 0
b111 6
b111 P
b111 7"
b101111100 [
b101111100 -"
b101111100 /"
b111100 X
b111100 )"
b111100 +"
b111100 ."
b111000 -
b111000 <
b111000 \
b111000 *"
b111000 5"
1)
#155
0)
#160
17
bx ,
bx 0
bx 6
bx P
bx 7"
b0 (
b0 /
b0 2
b0 A
b0 ]
b0 _
b0 }
b0 %"
b0 6"
b0 W
b0 8"
b0 ;"
b0 b
b0 f
b0 v
b0 z
b0 {
09
0@
0=
1>
b0 g
b0 j
b0 p
b0 t
b0 x
b1000 M
b0 k
b0 n
b0 r
b11111111111111111111111111111111 q
b0 S
b0 a
b0 e
b0 l
b0 s
b0 ""
b0 D"
b1000100 U
b1000100 &"
b1000100 ,"
b0 Q
b0 <"
b0 G"
b10001 V
b10001 '"
b10001 A"
b10001 C"
b1000100 Z
b1000100 3"
b1000100 4"
b10 D
b10 K
b10001 C
b10001 H
b1000100 2"
b0 :"
b0 E"
b10001 ?"
b0 &
b0 +
b0 1
b0 8
b0 R
b0 ="
b0 B"
b1000000 Y
b1000000 0"
b1000000 1"
b1000000000000000000000010001 .
b1000000000000000000000010001 4
b1000000000000000000000010001 5
b1000000000000000000000010001 O
b1111 3
b10000100 [
b10000100 -"
b10000100 /"
b1000000 X
b1000000 )"
b1000000 +"
b1000000 ."
b111100 -
b111100 <
b111100 \
b111100 *"
b111100 5"
1)
#165
0)
#170
b1010100 W
b1010100 8"
b1010100 ;"
07
b1010100 (
b1010100 /
b1010100 2
b1010100 A
b1010100 ]
b1010100 _
b1010100 }
b1010100 %"
b1010100 6"
b1010100 b
b1010100 f
b1010100 v
b1010100 z
b1010100 {
1@
1'
0>
b1010100 g
b1010100 j
b1010100 p
b1010100 t
b1010100 x
b10100000 M
b1010100 k
b1010100 n
b1010100 r
b11111111111111111111111110101011 q
b1010100 S
b1010100 a
b1010100 e
b1010100 l
b1010100 s
b1010100 ""
b1010100 D"
b101010000 U
b101010000 &"
b101010000 ,"
b1001000 Z
b1001000 3"
b1001000 4"
b111 &
b111 +
b111 1
b111 8
b111 R
b111 ="
b111 B"
b10 Q
b10 <"
b10 G"
b1010100 V
b1010100 '"
b1010100 A"
b1010100 C"
b101011 D
b101011 K
b10100 C
b10100 H
b10000000000101010000 2"
b10 :"
b10 E"
b1010100 ?"
b1001000 Y
b1001000 0"
b1001000 1"
b10101100000000100000000001010100 .
b10101100000000100000000001010100 4
b10101100000000100000000001010100 5
b10101100000000100000000001010100 O
b10001 3
b110011000 [
b110011000 -"
b110011000 /"
b1001000 X
b1001000 )"
b1001000 +"
b1001000 ."
b1000100 -
b1000100 <
b1000100 \
b1000100 *"
b1000100 5"
1)
