Project/Lab_09/lab09.vcd
$date
	Thu Jul 23 23:03:07 2020
$end
$version
	Icarus Verilog
$end
$timescale
	1s
$end
$scope module adder $end
$var wire 32 ! a [31:0] $end
$var wire 32 " b [31:0] $end
$var wire 32 # y [31:0] $end
$upscope $end
$scope module testbench $end
$var wire 32 $ writedata [31:0] $end
$var wire 1 % memwrite $end
$var wire 32 & dataadr [31:0] $end
$var reg 1 ' clk $end
$var reg 1 ( reset $end
$scope module dut $end
$var wire 1 ' clk $end
$var wire 1 ( reset $end
$var wire 32 ) writedata [31:0] $end
$var wire 32 * readdata [31:0] $end
$var wire 1 % memwrite $end
$var wire 32 + adr [31:0] $end
$scope module mem $end
$var wire 1 ' clk $end
$var wire 32 , rd [31:0] $end
$var wire 1 % we $end
$var wire 32 - wd [31:0] $end
$var wire 32 . a [31:0] $end
$upscope $end
$scope module mips $end
$var wire 1 ' clk $end
$var wire 32 / readdata [31:0] $end
$var wire 1 ( reset $end
$var wire 1 0 zero $end
$var wire 32 1 writedata [31:0] $end
$var wire 1 2 regwrite $end
$var wire 1 3 regdst $end
$var wire 2 4 pcsrc [1:0] $end
$var wire 1 5 pcen $end
$var wire 6 6 op [5:0] $end
$var wire 1 % memwrite $end
$var wire 1 7 memtoreg $end
$var wire 1 8 irwrite $end
$var wire 1 9 iord $end
$var wire 6 : funct [5:0] $end
$var wire 2 ; alusrcb [1:0] $end
$var wire 1 < alusrca $end
$var wire 3 = alucontrol [2:0] $end
$var wire 32 > adr [31:0] $end
$scope module c $end
$var wire 1 ' clk $end
$var wire 1 5 pcen $end
$var wire 1 ( reset $end
$var wire 1 0 zero $end
$var wire 1 2 regwrite $end
$var wire 1 3 regdst $end
$var wire 1 ? pcwrite $end
$var wire 2 @ pcsrc [1:0] $end
$var wire 6 A op [5:0] $end
$var wire 1 % memwrite $end
$var wire 1 7 memtoreg $end
$var wire 1 8 irwrite $end
$var wire 1 9 iord $end
$var wire 6 B funct [5:0] $end
$var wire 1 C branch $end
$var wire 2 D alusrcb [1:0] $end
$var wire 1 < alusrca $end
$var wire 2 E aluop [1:0] $end
$var wire 3 F alucontrol [2:0] $end
$scope module ad $end
$var wire 6 G funct [5:0] $end
$var wire 2 H aluop [1:0] $end
$var reg 3 I alucontrol [2:0] $end
$upscope $end
$scope module md $end
$var wire 1 ' clk $end
$var wire 1 ( reset $end
$var wire 1 2 regwrite $end
$var wire 1 3 regdst $end
$var wire 1 ? pcwrite $end
$var wire 2 J pcsrc [1:0] $end
$var wire 6 K op [5:0] $end
$var wire 1 % memwrite $end
$var wire 1 7 memtoreg $end
$var wire 1 8 irwrite $end
$var wire 1 9 iord $end
$var wire 1 C branch $end
$var wire 2 L alusrcb [1:0] $end
$var wire 1 < alusrca $end
$var wire 2 M aluop [1:0] $end
$var reg 15 N controls [14:0] $end
$var reg 4 O nextstate [3:0] $end
$var reg 4 P state [3:0] $end
$upscope $end
$upscope $end
$scope module dp $end
$var wire 3 Q alucontrol [2:0] $end
$var wire 1 < alusrca $end
$var wire 2 R alusrcb [1:0] $end
$var wire 1 ' clk $end
$var wire 1 9 iord $end
$var wire 1 8 irwrite $end
$var wire 1 7 memtoreg $end
$var wire 1 5 pcen $end
$var wire 2 S pcsrc [1:0] $end
$var wire 32 T readdata [31:0] $end
$var wire 1 3 regdst $end
$var wire 1 2 regwrite $end
$var wire 1 ( reset $end
$var wire 1 0 zero $end
$var wire 5 U writereg [4:0] $end
$var wire 32 V writedata [31:0] $end
$var wire 32 W wd3 [31:0] $end
$var wire 32 X srcb [31:0] $end
$var wire 32 Y srca [31:0] $end
$var wire 32 Z signimmsh [31:0] $end
$var wire 32 [ signimm [31:0] $end
$var wire 32 \ rd2 [31:0] $end
$var wire 32 ] rd1 [31:0] $end
$var wire 32 ^ pcnext [31:0] $end
$var wire 32 _ pc [31:0] $end
$var wire 6 ` op [5:0] $end
$var wire 32 a instr [31:0] $end
$var wire 6 b funct [5:0] $end
$var wire 32 c data [31:0] $end
$var wire 32 d aluresult [31:0] $end
$var wire 32 e aluout [31:0] $end
$var wire 32 f adr [31:0] $end
$var wire 32 g a [31:0] $end
$scope module adrmux $end
$var wire 1 9 s $end
$var wire 32 h y [31:0] $end
$var wire 32 i d1 [31:0] $end
$var wire 32 j d0 [31:0] $end
$upscope $end
$scope module alu $end
$var wire 3 k op [2:0] $end
$var wire 32 l result [31:0] $end
$var wire 32 m logicout [31:0] $end
$var wire 1 0 cero $end
$var wire 32 n b [31:0] $end
$var wire 32 o arithout [31:0] $end
$var wire 32 p a [31:0] $end
$scope module a_block $end
$var wire 3 q op [2:0] $end
$var wire 32 r b [31:0] $end
$var wire 32 s arithout [31:0] $end
$var wire 32 t addout [31:0] $end
$var wire 32 u a [31:0] $end
$scope module first_adder_substractor $end
$var wire 1 v s $end
$var wire 32 w y [31:0] $end
$var wire 32 x con [31:0] $end
$var wire 32 y b [31:0] $end
$var wire 32 z a [31:0] $end
$scope module first_adder $end
$var wire 1 v s $end
$var wire 32 { b [31:0] $end
$var wire 32 | a [31:0] $end
$var reg 32 } y [31:0] $end
$upscope $end
$scope module first_mux $end
$var wire 32 ~ b [31:0] $end
$var wire 1 v s $end
$var wire 32 !" y [31:0] $end
$var wire 32 "" a [31:0] $end
$upscope $end
$upscope $end
$scope module first_stl $end
$var wire 32 #" a [31:0] $end
$var wire 1 $" s $end
$var wire 32 %" y [31:0] $end
$var reg 32 &" extend [31:0] $end
$scope module first_mux $end
$var wire 32 '" a [31:0] $end
$var wire 32 (" b [31:0] $end
$var wire 1 $" s $end
$var wire 32 )" y [31:0] $end
$upscope $end
$upscope $end
$upscope $end
$scope module answer $end
$var wire 32 *" b [31:0] $end
$var wire 1 +" s $end
$var wire 32 ," y [31:0] $end
$var wire 32 -" a [31:0] $end
$upscope $end
$scope module l_block $end
$var wire 3 ." op [2:0] $end
$var wire 32 /" b [31:0] $end
$var wire 32 0" a [31:0] $end
$var reg 32 1" logicout [31:0] $end
$upscope $end
$scope module z_block $end
$var wire 32 2" a [31:0] $end
$var reg 1 0 y $end
$upscope $end
$upscope $end
$scope module alureg $end
$var wire 1 ' clk $end
$var wire 32 3" d [31:0] $end
$var wire 1 ( reset $end
$var reg 32 4" q [31:0] $end
$upscope $end
$scope module areg $end
$var wire 1 ' clk $end
$var wire 1 ( reset $end
$var wire 32 5" d [31:0] $end
$var reg 32 6" q [31:0] $end
$upscope $end
$scope module breg $end
$var wire 1 ' clk $end
$var wire 1 ( reset $end
$var wire 32 7" d [31:0] $end
$var reg 32 8" q [31:0] $end
$upscope $end
$scope module datareg $end
$var wire 1 ' clk $end
$var wire 32 9" d [31:0] $end
$var wire 1 ( reset $end
$var reg 32 :" q [31:0] $end
$upscope $end
$scope module immshifted $end
$var wire 32 ;" y [31:0] $end
$var wire 32 <" a [31:0] $end
$upscope $end
$scope module instrreg $end
$var wire 1 ' clk $end
$var wire 32 =" d [31:0] $end
$var wire 1 8 en $end
$var wire 1 ( reset $end
$var reg 32 >" q [31:0] $end
$upscope $end
$scope module pcmux $end
$var wire 32 ?" d0 [31:0] $end
$var wire 32 @" d1 [31:0] $end
$var wire 32 A" d2 [31:0] $end
$var wire 2 B" s [1:0] $end
$var wire 32 C" y [31:0] $end
$upscope $end
$scope module pcreg $end
$var wire 1 ' clk $end
$var wire 32 D" d [31:0] $end
$var wire 1 5 en $end
$var wire 1 ( reset $end
$var reg 32 E" q [31:0] $end
$upscope $end
$scope module rega3mux $end
$var wire 5 F" d0 [4:0] $end
$var wire 5 G" d1 [4:0] $end
$var wire 1 3 s $end
$var wire 5 H" y [4:0] $end
$upscope $end
$scope module regf $end
$var wire 1 ' clk $end
$var wire 5 I" ra1 [4:0] $end
$var wire 5 J" ra2 [4:0] $end
$var wire 5 K" wa3 [4:0] $end
$var wire 1 2 we3 $end
$var wire 32 L" wd3 [31:0] $end
$var wire 32 M" rd2 [31:0] $end
$var wire 32 N" rd1 [31:0] $end
$upscope $end
$scope module se $end
$var wire 16 O" a [15:0] $end
$var wire 32 P" y [31:0] $end
$upscope $end
$scope module srcamux $end
$var wire 32 Q" d0 [31:0] $end
$var wire 32 R" d1 [31:0] $end
$var wire 1 < s $end
$var wire 32 S" y [31:0] $end
$upscope $end
$scope module srcbmux $end
$var wire 32 T" d0 [31:0] $end
$var wire 32 U" d1 [31:0] $end
$var wire 32 V" d2 [31:0] $end
$var wire 32 W" d3 [31:0] $end
$var wire 2 X" s [1:0] $end
$var reg 32 Y" y [31:0] $end
$upscope $end
$scope module wdmux $end
$var wire 32 Z" d0 [31:0] $end
$var wire 32 [" d1 [31:0] $end
$var wire 1 7 s $end
$var wire 32 \" y [31:0] $end
$upscope $end
$upscope $end
$upscope $end
$upscope $end
$upscope $end
$enddefinitions $end
#0
$dumpvars
b0 \"
b0 ["
b0 Z"
b100 Y"
b1 X"
b0 W"
b0 V"
b100 U"
b0 T"
b0 S"
b0 R"
b0 Q"
b0 P"
b0 O"
b0 N"
b0 M"
b0 L"
b0 K"
b0 J"
b0 I"
b0 H"
b0 G"
b0 F"
b0 E"
bx D"
bx C"
b0 B"
b0 A"
b0 @"
b100 ?"
b0 >"
b100000000000100000000000000101 ="
b0 <"
b0 ;"
b0 :"
b100000000000100000000000000101 9"
b0 8"
b0 7"
b0 6"
b0 5"
b0 4"
b100 3"
b100 2"
bx 1"
b0 0"
b100 /"
b10 ."
bx -"
b100 ,"
1+"
b100 *"
b100 )"
b0 ("
b100 '"
b0 &"
b100 %"
0$"
b100 #"
b100 ""
b100 !"
b11111111111111111111111111111011 ~
b100 }
b0 |
b100 {
b0 z
b100 y
b100 x
b100 w
0v
b0 u
b100 t
b100 s
b100 r
b10 q
b0 p
b100 o
b100 n
bx m
b100 l
b10 k
b0 j
b0 i
b0 h
b0 g
b0 f
b0 e
b100 d
b0 c
b0 b
b0 a
b0 `
b0 _
bx ^
b0 ]
b0 \
b0 [
b0 Z
b0 Y
b100 X
b0 W
b0 V
b0 U
b100000000000100000000000000101 T
b0 S
b1 R
b10 Q
b0 P
b1 O
b101000000010000 N
b0 M
b1 L
b0 K
b0 J
b10 I
b0 H
b0 G
b10 F
b0 E
b1 D
0C
b0 B
b0 A
b0 @
1?
b0 >
b10 =
0<
b1 ;
b0 :
09
18
07
b0 6
15
b0 4
03
02
b0 1
00
b100000000000100000000000000101 /
b0 .
b0 -
b100000000000100000000000000101 ,
b0 +
b100000000000100000000000000101 *
b0 )
1(
1'
b0 &
0%
b0 $
bx #
bz "
bz !
$end
#1
b100 ^
b100 C"
b100 D"
#5
0'
#10
1'
#15
0'
#20
1'
#22
0(
#25
0'
#30
b10100 x
b10100 {
b10100 !"
b11111111111111111111111111101011 ~
b10100 X
b10100 n
b10100 r
b10100 y
b10100 ""
b10100 /"
b10100 Y"
b11000 d
b11000 l
b11000 ,"
b11000 2"
b11000 3"
b11000 ?"
05
b11000 o
b11000 s
b11000 %"
b11000 )"
b11000 *"
0?
08
b11 ;
b11 D
b11 L
b11 R
b11 X"
b11000 t
b11000 w
b11000 }
b11000 #"
b11000 '"
b110000 N
b1001 O
b10100 Z
b10100 ;"
b10100 W"
bx \
bx 7"
bx M"
b10 U
b10 H"
b10 K"
b100000000000110000000000001100 *
b100000000000110000000000001100 ,
b100000000000110000000000001100 /
b100000000000110000000000001100 T
b100000000000110000000000001100 9"
b100000000000110000000000001100 ="
b100 W
b100 L"
b100 \"
b10000000000000010100 A"
b101 [
b101 <"
b101 P"
b101 V"
b101 O"
b10 J"
b10 F"
b101 :
b101 B
b101 G
b101 b
b1000 6
b1000 A
b1000 K
b1000 `
b100 Y
b100 p
b100 u
b100 z
b100 |
b100 0"
b100 S"
b100 &
b100 +
b100 .
b100 >
b100 f
b100 h
b100 e
b100 i
b100 4"
b100 @"
b100 Z"
b100000000000100000000000000101 c
b100000000000100000000000000101 :"
b100000000000100000000000000101 ["
b100000000000100000000000000101 a
b100000000000100000000000000101 >"
b100 _
b100 j
b100 E"
b100 Q"
b1 P
1'
#31
b11000 ^
b11000 C"
b11000 D"
#35
0'
#40
b101 d
b101 l
b101 ,"
b101 2"
b101 3"
b101 ?"
b101 o
b101 s
b101 %"
b101 )"
b101 *"
b101 x
b101 {
b101 !"
b11111111111111111111111111111010 ~
b101 t
b101 w
b101 }
b101 #"
b101 '"
b101 X
b101 n
b101 r
b101 y
b101 ""
b101 /"
b101 Y"
b0 Y
b0 p
b0 u
b0 z
b0 |
b0 0"
b0 S"
1<
b10 ;
b10 D
b10 L
b10 R
b10 X"
b10000100000 N
b1010 O
b11000 W
b11000 L"
b11000 \"
b1001 P
b100000000000110000000000001100 c
b100000000000110000000000001100 :"
b100000000000110000000000001100 ["
bx $
bx )
bx -
bx 1
bx V
bx 8"
bx T"
b11000 e
b11000 i
b11000 4"
b11000 @"
b11000 Z"
1'
#41
b101 ^
b101 C"
b101 D"
#45
0'
#50
b0x &"
b0x ("
bx d
bx l
bx ,"
bx 2"
bx 3"
bx ?"
bx o
bx s
bx %"
bx )"
bx *"
bx x
bx {
bx !"
bx ~
bx t
bx w
bx }
bx #"
bx '"
bx X
bx n
bx r
bx y
bx ""
bx /"
bx Y"
b100 Y
b100 p
b100 u
b100 z
b100 |
b100 0"
b100 S"
12
0<
b0 ;
b0 D
b0 L
b0 R
b0 X"
b100000000000 N
b0 O
b101 W
b101 L"
b101 \"
b101 e
b101 i
b101 4"
b101 @"
b101 Z"
b1010 P
1'
#51
bx ^
bx C"
bx D"
#55
0'
#60
b1000 d
b1000 l
b1000 ,"
b1000 2"
b1000 3"
b1000 ?"
b0 &"
b0 ("
b1000 o
b1000 s
b1000 %"
b1000 )"
b1000 *"
b1000 t
b1000 w
b1000 }
b1000 #"
b1000 '"
b100 x
b100 {
b100 !"
b11111111111111111111111111111011 ~
b100 X
b100 n
b100 r
b100 y
b100 ""
b100 /"
b100 Y"
15
1?
18
02
b1 ;
b1 D
b1 L
b1 R
b1 X"
b101000000010000 N
b1 O
b101 \
b101 7"
b101 M"
bx W
bx L"
bx \"
b0 P
bx e
bx i
bx 4"
bx @"
bx Z"
1'
#61
b1000 ^
b1000 C"
b1000 D"
#65
0'
#70
b110000 x
b110000 {
b110000 !"
b11111111111111111111111111001111 ~
b110000 X
b110000 n
b110000 r
b110000 y
b110000 ""
b110000 /"
b110000 Y"
b111000 d
b111000 l
b111000 ,"
b111000 2"
b111000 3"
b111000 ?"
05
b111000 o
b111000 s
b111000 %"
b111000 )"
b111000 *"
0?
08
b11 ;
b11 D
b11 L
b11 R
b11 X"
b111000 t
b111000 w
b111000 }
b111000 #"
b111000 '"
b110000 N
b1001 O
b110000 Z
b110000 ;"
b110000 W"
bx \
bx 7"
bx M"
b11 U
b11 H"
b11 K"
b100000011001111111111111110111 *
b100000011001111111111111110111 ,
b100000011001111111111111110111 /
b100000011001111111111111110111 T
b100000011001111111111111110111 9"
b100000011001111111111111110111 ="
b1000 W
b1000 L"
b1000 \"
b11000000000000110000 A"
b1100 [
b1100 <"
b1100 P"
b1100 V"
b1100 O"
b11 J"
b11 F"
b1100 :
b1100 B
b1100 G
b1100 b
b1000 Y
b1000 p
b1000 u
b1000 z
b1000 |
b1000 0"
b1000 S"
b1000 &
b1000 +
b1000 .
b1000 >
b1000 f
b1000 h
b1000 e
b1000 i
b1000 4"
b1000 @"
b1000 Z"
b101 $
b101 )
b101 -
b101 1
b101 V
b101 8"
b101 T"
b100000000000110000000000001100 a
b100000000000110000000000001100 >"
b1000 _
b1000 j
b1000 E"
b1000 Q"
b1 P
1'
#71
b111000 ^
b111000 C"
b111000 D"
#75
0'
#80
b1100 d
b1100 l
b1100 ,"
b1100 2"
b1100 3"
b1100 ?"
b1100 o
b1100 s
b1100 %"
b1100 )"
b1100 *"
b1100 x
b1100 {
b1100 !"
b11111111111111111111111111110011 ~
b1100 t
b1100 w
b1100 }
b1100 #"
b1100 '"
b1100 X
b1100 n
b1100 r
b1100 y
b1100 ""
b1100 /"
b1100 Y"
b0 Y
b0 p
b0 u
b0 z
b0 |
b0 0"
b0 S"
1<
b10 ;
b10 D
b10 L
b10 R
b10 X"
b10000100000 N
b1010 O
b111000 W
b111000 L"
b111000 \"
b1001 P
b100000011001111111111111110111 c
b100000011001111111111111110111 :"
b100000011001111111111111110111 ["
bx $
bx )
bx -
bx 1
bx V
bx 8"
bx T"
b111000 e
b111000 i
b111000 4"
b111000 @"
b111000 Z"
1'
#81
b1100 ^
b1100 C"
b1100 D"
#85
0'
#90
b0x &"
b0x ("
bx d
bx l
bx ,"
bx 2"
bx 3"
bx ?"
bx o
bx s
bx %"
bx )"
bx *"
bx x
bx {
bx !"
bx ~
bx t
bx w
bx }
bx #"
bx '"
bx X
bx n
bx r
bx y
bx ""
bx /"
bx Y"
b1000 Y
b1000 p
b1000 u
b1000 z
b1000 |
b1000 0"
b1000 S"
12
0<
b0 ;
b0 D
b0 L
b0 R
b0 X"
b100000000000 N
b0 O
b1100 W
b1100 L"
b1100 \"
b1100 e
b1100 i
b1100 4"
b1100 @"
b1100 Z"
b1010 P
1'
#91
bx ^
bx C"
bx D"
#95
0'
#100
b1100 d
b1100 l
b1100 ,"
b1100 2"
b1100 3"
b1100 ?"
b0 &"
b0 ("
b1100 o
b1100 s
b1100 %"
b1100 )"
b1100 *"
b1100 t
b1100 w
b1100 }
b1100 #"
b1100 '"
b100 x
b100 {
b100 !"
b11111111111111111111111111111011 ~
b100 X
b100 n
b100 r
b100 y
b100 ""
b100 /"
b100 Y"
15
1?
18
02
b1 ;
b1 D
b1 L
b1 R
b1 X"
b101000000010000 N
b1 O
b1100 \
b1100 7"
b1100 M"
bx W
bx L"
bx \"
b0 P
bx e
bx i
bx 4"
bx @"
bx Z"
1'
#101
b1100 ^
b1100 C"
b1100 D"
#105
0'
#110
b1 &"
b1 ("
b11111111111111111111111111011100 x
b11111111111111111111111111011100 {
b11111111111111111111111111011100 !"
b100011 ~
b11111111111111111111111111011100 X
b11111111111111111111111111011100 n
b11111111111111111111111111011100 r
b11111111111111111111111111011100 y
b11111111111111111111111111011100 ""
b11111111111111111111111111011100 /"
b11111111111111111111111111011100 Y"
b11111111111111111111111111101000 d
b11111111111111111111111111101000 l
b11111111111111111111111111101000 ,"
b11111111111111111111111111101000 2"
b11111111111111111111111111101000 3"
b11111111111111111111111111101000 ?"
05
b11111111111111111111111111101000 o
b11111111111111111111111111101000 s
b11111111111111111111111111101000 %"
b11111111111111111111111111101000 )"
b11111111111111111111111111101000 *"
0?
08
b11 ;
b11 D
b11 L
b11 R
b11 X"
b11111111111111111111111111101000 t
b11111111111111111111111111101000 w
b11111111111111111111111111101000 }
b11111111111111111111111111101000 #"
b11111111111111111111111111101000 '"
b110000 N
b1001 O
b11111111111111111111111111011100 Z
b11111111111111111111111111011100 ;"
b11111111111111111111111111011100 W"
bx \
bx 7"
bx M"
b1100 ]
b1100 5"
b1100 N"
b111 U
b111 H"
b111 K"
b111000100010000000100101 *
b111000100010000000100101 ,
b111000100010000000100101 /
b111000100010000000100101 T
b111000100010000000100101 9"
b111000100010000000100101 ="
b1100 W
b1100 L"
b1100 \"
b1100111111111111111011100 A"
b11111111111111111111111111110111 [
b11111111111111111111111111110111 <"
b11111111111111111111111111110111 P"
b11111111111111111111111111110111 V"
b1111111111110111 O"
b111 J"
b11 I"
b11111 G"
b111 F"
b110111 :
b110111 B
b110111 G
b110111 b
b1100 Y
b1100 p
b1100 u
b1100 z
b1100 |
b1100 0"
b1100 S"
b1100 &
b1100 +
b1100 .
b1100 >
b1100 f
b1100 h
b1100 e
b1100 i
b1100 4"
b1100 @"
b1100 Z"
b1100 $
b1100 )
b1100 -
b1100 1
b1100 V
b1100 8"
b1100 T"
b100000011001111111111111110111 a
b100000011001111111111111110111 >"
b1100 _
b1100 j
b1100 E"
b1100 Q"
b1 P
1'
#111
b11111111111111111111111111101000 ^
b11111111111111111111111111101000 C"
b11111111111111111111111111101000 D"
#115
0'
#120
b11 d
b11 l
b11 ,"
b11 2"
b11 3"
b11 ?"
b0 &"
b0 ("
b11 o
b11 s
b11 %"
b11 )"
b11 *"
b11 t
b11 w
b11 }
b11 #"
b11 '"
b11111111111111111111111111110111 x
b11111111111111111111111111110111 {
b11111111111111111111111111110111 !"
b1000 ~
b11111111111111111111111111110111 X
b11111111111111111111111111110111 n
b11111111111111111111111111110111 r
b11111111111111111111111111110111 y
b11111111111111111111111111110111 ""
b11111111111111111111111111110111 /"
b11111111111111111111111111110111 Y"
1<
b10 ;
b10 D
b10 L
b10 R
b10 X"
b10000100000 N
b1010 O
b11111111111111111111111111101000 W
b11111111111111111111111111101000 L"
b11111111111111111111111111101000 \"
b1001 P
b111000100010000000100101 c
b111000100010000000100101 :"
b111000100010000000100101 ["
b1100 g
b1100 6"
b1100 R"
bx $
bx )
bx -
bx 1
bx V
bx 8"
bx T"
b11111111111111111111111111101000 e
b11111111111111111111111111101000 i
b11111111111111111111111111101000 4"
b11111111111111111111111111101000 @"
b11111111111111111111111111101000 Z"
1'
#121
b11 ^
b11 C"
b11 D"
#125
0'
#130
bx d
bx l
bx ,"
bx 2"
bx 3"
bx ?"
b0x &"
b0x ("
bx o
bx s
bx %"
bx )"
bx *"
bx t
bx w
bx }
bx #"
bx '"
bx x
bx {
bx !"
bx ~
bx X
bx n
bx r
bx y
bx ""
bx /"
bx Y"
12
0<
b0 ;
b0 D
b0 L
b0 R
b0 X"
b100000000000 N
b0 O
b11 W
b11 L"
b11 \"
b11 e
b11 i
b11 4"
b11 @"
b11 Z"
b1010 P
1'
#131
bx ^
bx C"
bx D"
#135
0'
#140
b10000 d
b10000 l
b10000 ,"
b10000 2"
b10000 3"
b10000 ?"
b0 &"
b0 ("
b10000 o
b10000 s
b10000 %"
b10000 )"
b10000 *"
b10000 t
b10000 w
b10000 }
b10000 #"
b10000 '"
b100 x
b100 {
b100 !"
b11111111111111111111111111111011 ~
b100 X
b100 n
b100 r
b100 y
b100 ""
b100 /"
b100 Y"
15
1?
18
02
b1 ;
b1 D
b1 L
b1 R
b1 X"
b101000000010000 N
b1 O
b11 \
b11 7"
b11 M"
bx W
bx L"
bx \"
b0 P
bx e
bx i
bx 4"
bx @"
bx Z"
1'
#141
b10000 ^
b10000 C"
b10000 D"
#145
0'
#150
b1000000010010100 x
b1000000010010100 {
b1000000010010100 !"
b11111111111111110111111101101011 ~
b1000000010010100 X
b1000000010010100 n
b1000000010010100 r
b1000000010010100 y
b1000000010010100 ""
b1000000010010100 /"
b1000000010010100 Y"
b1000000010100100 d
b1000000010100100 l
b1000000010100100 ,"
b1000000010100100 2"
b1000000010100100 3"
b1000000010100100 ?"
05
b1000000010100100 o
b1000000010100100 s
b1000000010100100 %"
b1000000010100100 )"
b1000000010100100 *"
0?
08
b11 ;
b11 D
b11 L
b11 R
b11 X"
b1000000010100100 t
b1000000010100100 w
b1000000010100100 }
b1000000010100100 #"
b1000000010100100 '"
b110000 N
b110 O
b1000000010010100 Z
b1000000010010100 ;"
b1000000010010100 W"
b101 \
b101 7"
b101 M"
b11 ]
b11 5"
b11 N"
b10 U
b10 H"
b10 K"
b11001000010100000100100 *
b11001000010100000100100 ,
b11001000010100000100100 /
b11001000010100000100100 T
b11001000010100000100100 9"
b11001000010100000100100 ="
b10000 W
b10000 L"
b10000 \"
b11100010001000000010010100 A"
b10000000100101 [
b10000000100101 <"
b10000000100101 P"
b10000000100101 V"
b10000000100101 O"
b10 J"
b111 I"
b100 G"
b10 F"
b100101 :
b100101 B
b100101 G
b100101 b
b0 6
b0 A
b0 K
b0 `
b10000 Y
b10000 p
b10000 u
b10000 z
b10000 |
b10000 0"
b10000 S"
b10000 &
b10000 +
b10000 .
b10000 >
b10000 f
b10000 h
b10000 e
b10000 i
b10000 4"
b10000 @"
b10000 Z"
b11 $
b11 )
b11 -
b11 1
b11 V
b11 8"
b11 T"
b111000100010000000100101 a
b111000100010000000100101 >"
b10000 _
b10000 j
b10000 E"
b10000 Q"
b1 P
1'
#151
b1000000010100100 ^
b1000000010100100 C"
b1000000010100100 D"
#155
0'
#160
b111 d
b111 l
b111 ,"
b111 2"
b111 3"
b111 ?"
b0 o
b0 s
b0 %"
b0 )"
b0 *"
b101 x
b101 {
b101 !"
b11111111111111111111111111111010 ~
0+"
1$"
b111 m
b111 -"
b111 1"
b1000 t
b1000 w
b1000 }
b1000 #"
b1000 '"
b101 X
b101 n
b101 r
b101 y
b101 ""
b101 /"
b101 Y"
b1 =
b1 F
b1 I
b1 Q
b1 k
b1 q
b1 ."
b11 Y
b11 p
b11 u
b11 z
b11 |
b11 0"
b11 S"
1<
b0 ;
b0 D
b0 L
b0 R
b0 X"
b10 E
b10 H
b10 M
b10000000010 N
b111 O
b1000000010100100 W
b1000000010100100 L"
b1000000010100100 \"
b110 P
b11001000010100000100100 c
b11001000010100000100100 :"
b11001000010100000100100 ["
b11 g
b11 6"
b11 R"
b101 $
b101 )
b101 -
b101 1
b101 V
b101 8"
b101 T"
b1000000010100100 e
b1000000010100100 i
b1000000010100100 4"
b1000000010100100 @"
b1000000010100100 Z"
1'
#161
b111 ^
b111 C"
b111 D"
#165
0'
#170
00
b10101 o
b10101 s
b10101 %"
b10101 )"
b10101 *"
1+"
0$"
b10101 t
b10101 w
b10101 }
b10101 #"
b10101 '"
b10 =
b10 F
b10 I
b10 Q
b10 k
b10 q
b10 ."
b10101 d
b10101 l
b10101 ,"
b10101 2"
b10101 3"
b10101 ?"
bx m
bx -"
bx 1"
b10000 Y
b10000 p
b10000 u
b10000 z
b10000 |
b10000 0"
b10000 S"
b100 U
b100 H"
b100 K"
12
0<
13
b0 E
b0 H
b0 M
b100001000000 N
b0 O
b111 W
b111 L"
b111 \"
b111 e
b111 i
b111 4"
b111 @"
b111 Z"
b111 P
1'
#171
b10101 ^
b10101 C"
b10101 D"
#175
0'
#180
b10100 d
b10100 l
b10100 ,"
b10100 2"
b10100 3"
b10100 ?"
b10100 o
b10100 s
b10100 %"
b10100 )"
b10100 *"
b10100 t
b10100 w
b10100 }
b10100 #"
b10100 '"
b100 x
b100 {
b100 !"
b11111111111111111111111111111011 ~
b100 X
b100 n
b100 r
b100 y
b100 ""
b100 /"
b100 Y"
15
b10 U
b10 H"
b10 K"
1?
18
02
03
b1 ;
b1 D
b1 L
b1 R
b1 X"
b101000000010000 N
b1 O
b10101 W
b10101 L"
b10101 \"
b0 P
b10101 e
b10101 i
b10101 4"
b10101 @"
b10101 Z"
1'
#181
b10100 ^
b10100 C"
b10100 D"
#185
0'
#190
b1010000010010000 x
b1010000010010000 {
b1010000010010000 !"
b11111111111111110101111101101111 ~
b1010000010010000 X
b1010000010010000 n
b1010000010010000 r
b1010000010010000 y
b1010000010010000 ""
b1010000010010000 /"
b1010000010010000 Y"
b1010000010100100 d
b1010000010100100 l
b1010000010100100 ,"
b1010000010100100 2"
b1010000010100100 3"
b1010000010100100 ?"
05
b1010000010100100 o
b1010000010100100 s
b1010000010100100 %"
b1010000010100100 )"
b1010000010100100 *"
0?
08
b11 ;
b11 D
b11 L
b11 R
b11 X"
b1010000010100100 t
b1010000010100100 w
b1010000010100100 }
b1010000010100100 #"
b1010000010100100 '"
b110000 N
b110 O
b1010000010010000 Z
b1010000010010000 ;"
b1010000010010000 W"
b111 \
b111 7"
b111 M"
b1100 ]
b1100 5"
b1100 N"
b100 U
b100 H"
b100 K"
b101001000010100000100000 *
b101001000010100000100000 ,
b101001000010100000100000 /
b101001000010100000100000 T
b101001000010100000100000 9"
b101001000010100000100000 ="
b10100 W
b10100 L"
b10100 \"
b1100100001010000010010000 A"
b10100000100100 [
b10100000100100 <"
b10100000100100 P"
b10100000100100 V"
b10100000100100 O"
b100 J"
b11 I"
b101 G"
b100 F"
b100100 :
b100100 B
b100100 G
b100100 b
b10100 Y
b10100 p
b10100 u
b10100 z
b10100 |
b10100 0"
b10100 S"
b10100 &
b10100 +
b10100 .
b10100 >
b10100 f
b10100 h
b10100 e
b10100 i
b10100 4"
b10100 @"
b10100 Z"
b11001000010100000100100 a
b11001000010100000100100 >"
b10100 _
b10100 j
b10100 E"
b10100 Q"
b1 P
1'
#191
b1010000010100100 ^
b1010000010100100 C"
b1010000010100100 D"
#195
0'
#200
b100 d
b100 l
b100 ,"
b100 2"
b100 3"
b100 ?"
b10011 o
b10011 s
b10011 %"
b10011 )"
b10011 *"
b111 x
b111 {
b111 !"
b11111111111111111111111111111000 ~
0+"
b100 m
b100 -"
b100 1"
b10011 t
b10011 w
b10011 }
b10011 #"
b10011 '"
b111 X
b111 n
b111 r
b111 y
b111 ""
b111 /"
b111 Y"
b0 =
b0 F
b0 I
b0 Q
b0 k
b0 q
b0 ."
b1100 Y
b1100 p
b1100 u
b1100 z
b1100 |
b1100 0"
b1100 S"
1<
b0 ;
b0 D
b0 L
b0 R
b0 X"
b10 E
b10 H
b10 M
b10000000010 N
b111 O
b1010000010100100 W
b1010000010100100 L"
b1010000010100100 \"
b110 P
b101001000010100000100000 c
b101001000010100000100000 :"
b101001000010100000100000 ["
b1100 g
b1100 6"
b1100 R"
b111 $
b111 )
b111 -
b111 1
b111 V
b111 8"
b111 T"
b1010000010100100 e
b1010000010100100 i
b1010000010100100 4"
b1010000010100100 @"
b1010000010100100 Z"
1'
#201
b100 ^
b100 C"
b100 D"
#205
0'
